BHHI Data Science Salon - Importing Data in R
…
Stata: Initial Import

library(haven)

auto2 = read_dta("data/auto2.dta")

auto2

# A tibble: 74 × 13
   make      price   mpg rep78    headroom review_date trunk weight length  turn
   <chr>     <dbl> <dbl> <dbl+lb>    <dbl> <date>      <dbl>  <dbl>  <dbl> <dbl>
 1 AMC Conc…  4099    22  3 [Ave…      2.5 1978-04-28     11   2930    186    40
 2 AMC Pacer  4749    17  3 [Ave…      3   1978-03-27     11   3350    173    40
 3 AMC Spir…  3799    22 NA            3   1978-06-10     12   2640    168    35
 4 Buick Ce…  4816    20  3 [Ave…      4.5 1978-02-09     16   3250    196    40
 5 Buick El…  7827    15  4 [Goo…      4   1978-11-21     20   4080    222    43
 6 Buick Le…  5788    18  3 [Ave…      4   1978-01-14     21   3670    218    43
 7 Buick Op…  4453    26 NA            3   1978-04-03     10   2230    170    34
 8 Buick Re…  5189    20  3 [Ave…      2   1978-10-23     16   3280    200    42
 9 Buick Ri… 10372    16  3 [Ave…      3.5 1978-07-28     17   3880    207    43
10 Buick Sk…  4082    19  3 [Ave…      3.5 1978-11-12     13   3400    200    42
# ℹ 64 more rows
# ℹ 3 more variables: displacement <dbl>, gear_ratio <dbl>, foreign <dbl+lbl>
…
